%YAML 1.1
%TAG !u! tag:unity3d.com,2011:
--- !u!114 &11400000
MonoBehaviour:
  m_ObjectHideFlags: 0
  m_CorrespondingSourceObject: {fileID: 0}
  m_PrefabInstance: {fileID: 0}
  m_PrefabAsset: {fileID: 0}
  m_GameObject: {fileID: 0}
  m_Enabled: 1
  m_EditorHideFlags: 0
  m_Script: {fileID: 11500000, guid: 212cda8dceb550847a2a9ec9ed3f8d8e, type: 3}
  m_Name: AnimationSettings
  m_EditorClassIdentifier: 
  TriangleUp:
  - {x: 0.5, y: 0}
  - {x: 1, y: 0.8}
  - {x: 0, y: 0.8}
  TriangleDown:
  - {x: 0.5, y: 1}
  - {x: 0, y: 0.2}
  - {x: 1, y: 0.2}
  LeftArrow:
  - {x: 0.28, y: 0.25}
  - {x: 0, y: 0.5}
  - {x: 0.28, y: 0.75}
  RightArrow:
  - {x: 0.72, y: 0.75}
  - {x: 1, y: 0.5}
  - {x: 0.72, y: 0.25}
  CenterCircl:
  - {x: 0.5, y: 0.75}
  - {x: 0.72, y: 0.5}
  - {x: 0.5, y: 0.25}
  - {x: 0.28, y: 0.5}
  Perimetre:
  - {x: 0, y: 0}
  - {x: 1, y: 0}
  - {x: 1, y: 1}
  - {x: 0, y: 1}
  Star:
  - {x: 0, y: 0.6}
  - {x: 1, y: 0.6}
  - {x: 0.1, y: 0}
  - {x: 0.5, y: 1}
  - {x: 0.9, y: 0}
  Perimetre2:
  - {x: 0.87, y: 0.87}
  - {x: 0.13, y: 0.87}
  - {x: 0.13, y: 0.13}
  - {x: 0.87, y: 0.13}
  Perimetre3:
  - {x: 0.26, y: 0.26}
  - {x: 0.26, y: 0.74}
  - {x: 0.74, y: 0.74}
  - {x: 0.74, y: 0.26}
  Perimetre4:
  - {x: 0.61, y: 0.61}
  - {x: 0.39, y: 0.61}
  - {x: 0.39, y: 0.39}
  - {x: 0.61, y: 0.39}
  PerTraingles1:
  - {x: 0, y: 1}
  - {x: 0.5, y: 0}
  - {x: 1, y: 1}
  PerTraingles2:
  - {x: 1, y: 0}
  - {x: 0.5, y: 1}
  - {x: 0, y: 0}
  PerTraingles3:
  - {x: 0, y: 0}
  - {x: 1, y: 0.5}
  - {x: 0, y: 1}
  PerTraingles4:
  - {x: 1, y: 1}
  - {x: 0, y: 0.5}
  - {x: 1, y: 0}
  ScheduleTraingles1:
  - {x: 1, y: 0}
  - {x: 0.75, y: 1}
  - {x: 0.5, y: 0}
  - {x: 0.25, y: 1}
  - {x: 0, y: 0}
  ScheduleTraingles2:
  - {x: 0, y: 1}
  - {x: 0.25, y: 0}
  - {x: 0.5, y: 1}
  - {x: 0.75, y: 0}
  - {x: 1, y: 1}
  ScheduleTraingles3:
  - {x: 1, y: 1}
  - {x: 0, y: 0.75}
  - {x: 1, y: 0.5}
  - {x: 0, y: 0.25}
  - {x: 1, y: 0}
  ScheduleTraingles4:
  - {x: 0, y: 0}
  - {x: 1, y: 0.25}
  - {x: 0, y: 0.5}
  - {x: 1, y: 0.75}
  - {x: 0, y: 1}
  ScheduleUp:
  - {x: 0, y: 0.6}
  - {x: 1, y: 0.6}
  - {x: 1, y: 1}
  - {x: 0.8334, y: 0.7}
  - {x: 0.6668, y: 1}
  - {x: 0.5002, y: 0.7}
  - {x: 0.3336, y: 1}
  - {x: 0.167, y: 0.7}
  - {x: 0, y: 1}
  ScheduleDown:
  - {x: 1, y: 0.4}
  - {x: 0, y: 0.4}
  - {x: 0, y: 0}
  - {x: 0.1666, y: 0.3}
  - {x: 0.3332, y: 0}
  - {x: 0.4998, y: 0.3}
  - {x: 0.6664, y: 0}
  - {x: 0.83, y: 0.3}
  - {x: 1, y: 0}
  OECDCircl:
  - {x: 0.5, y: 0.5}
  - {x: 0.52, y: 0.69}
  - {x: 0.57, y: 0.86}
  - {x: 0.655, y: 0.96}
  - {x: 0.75, y: 1}
  - {x: 0.845, y: 0.96}
  - {x: 0.93, y: 0.86}
  - {x: 0.98, y: 0.69}
  - {x: 1, y: 0.5}
  - {x: 0.98, y: 0.31}
  - {x: 0.93, y: 0.14}
  - {x: 0.845, y: 0.04}
  - {x: 0.75, y: 0}
  - {x: 0.655, y: 0.04}
  - {x: 0.57, y: 0.14}
  - {x: 0.52, y: 0.31}
  OECDArrow1:
  - {x: 0.5, y: 1}
  - {x: 0.25, y: 0.5}
  - {x: 0.5, y: 0}
  OECDArrow2:
  - {x: 0.25, y: 0}
  - {x: 0, y: 0.5}
  - {x: 0.25, y: 1}
  VerLine:
  - {x: 0.5, y: 0}
  - {x: 0.5, y: 1}
  - {x: 0, y: 1}
  - {x: 1, y: 0}
  HorLine:
  - {x: 0, y: 0.5}
  - {x: 1, y: 0.5}
  - {x: 1, y: 1}
  - {x: 0, y: 0}
  MountUp:
  - {x: 0, y: 0.5}
  - {x: 0.3, y: 1}
  - {x: 0.8, y: 0}
  - {x: 1, y: 0.25}
  - {x: 1, y: 1}
  - {x: 0.5, y: 0}
  - {x: 0, y: 1}
  MountDown:
  - {x: 0, y: 0}
  - {x: 0.5, y: 1}
  - {x: 1, y: 0}
  - {x: 1, y: 0.5}
  - {x: 0.7, y: 0}
  - {x: 0.2, y: 1}
  - {x: 0, y: 0.75}
  Fountain:
  - {x: 0.125, y: 0}
  - {x: 0.125, y: 1}
  - {x: 0.375, y: 1}
  - {x: 0.375, y: 0}
  - {x: 0.625, y: 0}
  - {x: 0.625, y: 1}
  - {x: 0.875, y: 1}
  - {x: 0.875, y: 0}
  MalteseCross1:
  - {x: 0.5, y: 0.5}
  - {x: 0, y: 0.25}
  - {x: 0.125, y: 0.5}
  - {x: 0, y: 0.75}
  MalteseCross2:
  - {x: 0.5, y: 0.5}
  - {x: 0.25, y: 1}
  - {x: 0.5, y: 0.875}
  - {x: 0.75, y: 1}
  MalteseCross3:
  - {x: 0.5, y: 0.5}
  - {x: 1, y: 0.75}
  - {x: 0.875, y: 0.5}
  - {x: 1, y: 0.25}
  MalteseCross4:
  - {x: 0.5, y: 0.5}
  - {x: 0.75, y: 0}
  - {x: 0.5, y: 0.125}
  - {x: 0.25, y: 0}
  BigMalCross1:
  - {x: 0.5, y: 0.5}
  - {x: 0.25, y: 0.25}
  - {x: 0, y: 0.25}
  - {x: 0.25, y: 0.5}
  - {x: 0, y: 0.75}
  - {x: 0.25, y: 0.75}
  BigMalCross2:
  - {x: 0.5, y: 0.5}
  - {x: 0.25, y: 0.75}
  - {x: 0.25, y: 1}
  - {x: 0.5, y: 0.875}
  - {x: 0.75, y: 1}
  - {x: 0.75, y: 0.75}
  BigMalCross3:
  - {x: 0.5, y: 0.5}
  - {x: 0.75, y: 0.75}
  - {x: 1, y: 0.75}
  - {x: 0.875, y: 0.5}
  - {x: 1, y: 0.25}
  - {x: 0.75, y: 0.25}
  BigMalCross4:
  - {x: 0.5, y: 0.5}
  - {x: 0.75, y: 0.25}
  - {x: 0.75, y: 0}
  - {x: 0.5, y: 0.125}
  - {x: 0.25, y: 0}
  - {x: 0.25, y: 0.25}
  CirclVerHor1:
  - {x: 0.5, y: 0.9}
  - {x: 0.59, y: 0.86}
  - {x: 0.76, y: 0.76}
  - {x: 0.86, y: 0.59}
  - {x: 0.9, y: 0.5}
  - {x: 0.86, y: 0.41}
  - {x: 0.76, y: 0.24}
  - {x: 0.59, y: 0.14}
  - {x: 0.5, y: 0.1}
  - {x: 0.41, y: 0.14}
  - {x: 0.24, y: 0.24}
  - {x: 0.14, y: 0.41}
  - {x: 0.1, y: 0.5}
  - {x: 0.14, y: 0.59}
  - {x: 0.24, y: 0.76}
  - {x: 0.41, y: 0.86}
  CirclVer2:
  - {x: 0.4, y: 0.9}
  - {x: 0.5, y: 1}
  - {x: 0.5, y: 0}
  - {x: 0.6, y: 0.1}
  - {x: 0.5, y: 0}
  - {x: 0.5, y: 1}
  CirclHor3:
  - {x: 0.9, y: 0.6}
  - {x: 1, y: 0.5}
  - {x: 0, y: 0.5}
  - {x: 0.1, y: 0.4}
  - {x: 0, y: 0.5}
  - {x: 1, y: 0.5}
  LiliyaLeft1:
  - {x: 0.7, y: 0}
  - {x: 0.5, y: 0.1}
  - {x: 0.35, y: 0.2}
  - {x: 0.5, y: 0.3}
  - {x: 0.3, y: 0.6}
  - {x: 0.24, y: 0.65}
  - {x: 0.15, y: 0.7}
  - {x: 0.06, y: 0.65}
  - {x: 0, y: 0.6}
  - {x: 0.06, y: 0.65}
  - {x: 0.15, y: 0.7}
  - {x: 0.24, y: 0.65}
  - {x: 0.3, y: 0.6}
  LiliyaRight2:
  - {x: 0.3, y: 0}
  - {x: 0.5, y: 0.1}
  - {x: 0.65, y: 0.2}
  - {x: 0.5, y: 0.3}
  - {x: 0.7, y: 0.6}
  - {x: 0.76, y: 0.65}
  - {x: 0.85, y: 0.7}
  - {x: 0.96, y: 0.65}
  - {x: 1, y: 0.6}
  - {x: 0.96, y: 0.65}
  - {x: 0.85, y: 0.7}
  - {x: 0.76, y: 0.65}
  - {x: 0.7, y: 0.6}
  LiliyaCentr3:
  - {x: 0.5, y: 0}
  - {x: 0.45, y: 0}
  - {x: 0.5, y: 0.9}
  - {x: 0.55, y: 0}
  LiliyaHor4:
  - {x: 0.5, y: 0.15}
  - {x: 0.3, y: 0.2}
  - {x: 0.5, y: 0.25}
  - {x: 0.7, y: 0.2}
  CirclLines1:
  - {x: 0.5, y: 0.9}
  - {x: 0.59, y: 0.86}
  - {x: 0.76, y: 0.76}
  - {x: 0.86, y: 0.59}
  - {x: 0.9, y: 0.5}
  - {x: 0.86, y: 0.41}
  - {x: 0.76, y: 0.24}
  - {x: 0.59, y: 0.14}
  - {x: 0.5, y: 0.1}
  - {x: 0.41, y: 0.14}
  - {x: 0.24, y: 0.24}
  - {x: 0.14, y: 0.41}
  - {x: 0.1, y: 0.5}
  - {x: 0.14, y: 0.59}
  - {x: 0.24, y: 0.76}
  - {x: 0.41, y: 0.86}
  CirclLines2:
  - {x: 0.5, y: 0.5}
  - {x: 0.5, y: 0.9}
  - {x: 0.7, y: 1}
  - {x: 0.5, y: 0.9}
  CirclLines3:
  - {x: 0.5, y: 0.5}
  - {x: 0.76, y: 0.76}
  - {x: 0.96, y: 0.76}
  - {x: 0.76, y: 0.76}
  CirclLines4:
  - {x: 0.5, y: 0.5}
  - {x: 0.9, y: 0.5}
  - {x: 1, y: 0.3}
  - {x: 0.9, y: 0.5}
  CirclLines5:
  - {x: 0.5, y: 0.5}
  - {x: 0.76, y: 0.24}
  - {x: 0.76, y: 0.04}
  - {x: 0.76, y: 0.24}
  CirclLines6:
  - {x: 0.5, y: 0.5}
  - {x: 0.5, y: 0.1}
  - {x: 0.3, y: 0}
  - {x: 0.5, y: 0.1}
  CirclLines7:
  - {x: 0.5, y: 0.5}
  - {x: 0.24, y: 0.24}
  - {x: 0.04, y: 0.24}
  - {x: 0.24, y: 0.24}
  CirclLines8:
  - {x: 0.5, y: 0.5}
  - {x: 0.1, y: 0.5}
  - {x: 0, y: 0.7}
  - {x: 0.1, y: 0.5}
  CirclLines9:
  - {x: 0.5, y: 0.5}
  - {x: 0.24, y: 0.76}
  - {x: 0.24, y: 0.96}
  - {x: 0.24, y: 0.76}
  Atom1:
  - {x: 0.5, y: 1}
  - {x: 0.5625, y: 0.75}
  - {x: 0.625, y: 0.5}
  - {x: 0.5625, y: 0.25}
  - {x: 0.5, y: 0}
  - {x: 0.4375, y: 0.25}
  - {x: 0.375, y: 0.5}
  - {x: 0.4375, y: 0.75}
  Atom2:
  - {x: 0.9, y: 0.9}
  - {x: 0.625, y: 0.5}
  - {x: 0.1, y: 0.1}
  - {x: 0.375, y: 0.5}
  Atom3:
  - {x: 1, y: 0.5}
  - {x: 0.75, y: 0.4375}
  - {x: 0.5, y: 0.375}
  - {x: 0.25, y: 0.4375}
  - {x: 0, y: 0.5}
  - {x: 0.25, y: 0.5625}
  - {x: 0.5, y: 0.625}
  - {x: 0.75, y: 0.5625}
  Atom4:
  - {x: 0.9, y: 0.1}
  - {x: 0.5, y: 0.375}
  - {x: 0.1, y: 0.9}
  - {x: 0.5, y: 0.625}
  Triquctrum1:
  - {x: 0.5, y: 0.9}
  - {x: 1, y: 0}
  - {x: 0, y: 0}
  Triquctrum2:
  - {x: 0.5, y: 0.7}
  - {x: 0.62, y: 0.4}
  - {x: 0.59, y: 0.27}
  - {x: 0.5, y: 0.2}
  - {x: 0.41, y: 0.27}
  - {x: 0.38, y: 0.4}
  Triquctrum3:
  - {x: 0.82, y: 0.14}
  - {x: 0.5, y: 0.2}
  - {x: 0.41, y: 0.27}
  - {x: 0.38, y: 0.4}
  - {x: 0.5, y: 0.44}
  - {x: 0.62, y: 0.4}
  Triquctrum4:
  - {x: 0.18, y: 0.14}
  - {x: 0.38, y: 0.4}
  - {x: 0.5, y: 0.44}
  - {x: 0.62, y: 0.4}
  - {x: 0.59, y: 0.27}
  - {x: 0.5, y: 0.2}
  Circulation:
  - {x: 0.5, y: 0.5}
  - {x: 0.55, y: 0.5}
  - {x: 0.5, y: 0.4}
  - {x: 0.425, y: 0.425}
  - {x: 0.4, y: 0.5}
  - {x: 0.425, y: 0.525}
  - {x: 0.5, y: 0.65}
  - {x: 0.625, y: 0.625}
  - {x: 0.7, y: 0.5}
  - {x: 0.65, y: 0.35}
  - {x: 0.5, y: 0.25}
  - {x: 0.3, y: 0.3}
  - {x: 0.2, y: 0.5}
  - {x: 0.275, y: 0.725}
  - {x: 0.5, y: 0.85}
  - {x: 0.75, y: 0.75}
  - {x: 0.9, y: 0.5}
  - {x: 0.775, y: 0.2}
  - {x: 0.5, y: 0.05}
  - {x: 0.175, y: 0.175}
  - {x: 0, y: 0.5}
  - {x: 0.15, y: 0.85}
  - {x: 0.5, y: 1}
  - {x: 0.85, y: 0.85}
  - {x: 1, y: 0.5}
  - {x: 0.825, y: 0.825}
  - {x: 0.5, y: 0.95}
  - {x: 0.2, y: 0.8}
  - {x: 0.1, y: 0.5}
  - {x: 0.25, y: 0.25}
  - {x: 0.5, y: 0.15}
  - {x: 0.725, y: 0.275}
  - {x: 0.8, y: 0.5}
  - {x: 0.7, y: 0.7}
  - {x: 0.5, y: 0.75}
  - {x: 0.35, y: 0.65}
  - {x: 0.3, y: 0.5}
  - {x: 0.375, y: 0.375}
  - {x: 0.5, y: 0.35}
  - {x: 0.575, y: 0.425}
  - {x: 0.6, y: 0.5}
  - {x: 0.575, y: 0.575}
  - {x: 0.5, y: 0.6}
  - {x: 0.45, y: 0.55}
  FourSquare1:
  - {x: 0.5, y: 0.5}
  - {x: 0.25, y: 0.75}
  - {x: 0.5, y: 1}
  - {x: 0.75, y: 0.75}
  FourSquare2:
  - {x: 0.5, y: 0.5}
  - {x: 0.75, y: 0.75}
  - {x: 1, y: 0.5}
  - {x: 0.75, y: 0.25}
  FourSquare3:
  - {x: 0.5, y: 0.5}
  - {x: 0.75, y: 0.25}
  - {x: 0.5, y: 0}
  - {x: 0.25, y: 0.25}
  FourSquare4:
  - {x: 0.5, y: 0.5}
  - {x: 0.25, y: 0.25}
  - {x: 0, y: 0.5}
  - {x: 0.25, y: 0.75}
  QuadroStar1:
  - {x: 0.5, y: 1}
  - {x: 1, y: 0.5}
  - {x: 0.5, y: 0}
  - {x: 0, y: 0.5}
  QuadroStar2:
  - {x: 0, y: 1}
  - {x: 0.65, y: 0.65}
  - {x: 1, y: 0}
  - {x: 0.35, y: 0.35}
  QuadroStar3:
  - {x: 1, y: 1}
  - {x: 0.35, y: 0.65}
  - {x: 0, y: 0}
  - {x: 0.65, y: 0.35}
  Labirint1:
  - {x: 0, y: 0}
  - {x: 0, y: 0.9}
  - {x: 0.8, y: 0.9}
  - {x: 0.8, y: 0.3}
  - {x: 0.4, y: 0.3}
  - {x: 0.4, y: 0.5}
  - {x: 0.5, y: 0.5}
  - {x: 0.5, y: 0.4}
  - {x: 0.7, y: 0.4}
  - {x: 0.7, y: 0.8}
  - {x: 0.1, y: 0.8}
  - {x: 0.1, y: 0}
  Labirint2:
  - {x: 1, y: 1}
  - {x: 1, y: 0.1}
  - {x: 0.2, y: 0.1}
  - {x: 0.2, y: 0.7}
  - {x: 0.6, y: 0.7}
  - {x: 0.6, y: 0.5}
  - {x: 0.5, y: 0.5}
  - {x: 0.5, y: 0.6}
  - {x: 0.3, y: 0.6}
  - {x: 0.3, y: 0.2}
  - {x: 0.9, y: 0.2}
  - {x: 0.9, y: 1}
  Magendovid1:
  - {x: 0.15, y: 0.85}
  - {x: 0.85, y: 0.85}
  - {x: 0.85, y: 0.15}
  - {x: 0.15, y: 0.15}
  Magendovid2:
  - {x: 0.5, y: 1}
  - {x: 1, y: 0.5}
  - {x: 0.5, y: 0}
  - {x: 0, y: 0.5}
  Hurt1:
  - {x: 0.5, y: 0}
  - {x: 0.05, y: 0.6}
  - {x: 0, y: 0.75}
  - {x: 0.067, y: 0.933}
  - {x: 0.25, y: 1}
  - {x: 0.433, y: 0.933}
  - {x: 0.5, y: 0.75}
  - {x: 0.433, y: 0.933}
  - {x: 0.25, y: 1}
  - {x: 0.067, y: 0.933}
  - {x: 0, y: 0.75}
  - {x: 0.05, y: 0.6}
  Hurt2:
  - {x: 0.5, y: 0}
  - {x: 0.95, y: 0.6}
  - {x: 1, y: 0.75}
  - {x: 0.933, y: 0.933}
  - {x: 0.75, y: 1}
  - {x: 0.567, y: 0.933}
  - {x: 0.5, y: 0.75}
  - {x: 0.567, y: 0.933}
  - {x: 0.75, y: 1}
  - {x: 0.933, y: 0.933}
  - {x: 1, y: 0.75}
  - {x: 0.95, y: 0.6}
  Peak1:
  - {x: 0.5, y: 0.35}
  - {x: 0.4, y: 0.3}
  - {x: 0.2, y: 0.35}
  - {x: 0.138, y: 0.475}
  - {x: 0.154, y: 0.588}
  - {x: 0.5, y: 1}
  - {x: 0.846, y: 0.588}
  - {x: 0.862, y: 0.475}
  - {x: 0.8, y: 0.35}
  - {x: 0.6, y: 0.3}
  Peak2:
  - {x: 0.5, y: 0.15}
  - {x: 0.25, y: 0}
  - {x: 0.5, y: 0.35}
  - {x: 0.75, y: 0}
  Cross1:
  - {x: 0.5, y: 0.5}
  - {x: 0.462, y: 0.35}
  - {x: 0.35, y: 0.212}
  - {x: 0.2, y: 0.15}
  - {x: 0.8, y: 0.15}
  - {x: 0.65, y: 0.212}
  - {x: 0.538, y: 0.35}
  Cross2:
  - {x: 0.5, y: 0.5}
  - {x: 0.3, y: 0.8}
  - {x: 0.35, y: 0.95}
  - {x: 0.5, y: 1}
  - {x: 0.65, y: 0.95}
  - {x: 0.7, y: 0.8}
  Cross3:
  - {x: 0.5, y: 0.5}
  - {x: 0.2, y: 0.3}
  - {x: 0.05, y: 0.35}
  - {x: 0, y: 0.5}
  - {x: 0.05, y: 0.65}
  - {x: 0.3, y: 0.7}
  Cross4:
  - {x: 0.5, y: 0.5}
  - {x: 0.8, y: 0.7}
  - {x: 0.95, y: 0.65}
  - {x: 1, y: 0.5}
  - {x: 0.95, y: 0.35}
  - {x: 0.8, y: 0.3}
  ThreeCross:
  - {x: 0.5, y: 0.5}
  - {x: 0.617, y: 0.467}
  - {x: 0.75, y: 0.4}
  - {x: 0.883, y: 0.467}
  - {x: 0.95, y: 0.6}
  - {x: 0.883, y: 0.733}
  - {x: 0.75, y: 0.8}
  - {x: 0.617, y: 0.733}
  - {x: 0.55, y: 0.6}
  - {x: 0.617, y: 0.467}
  - {x: 0.638, y: 0.383}
  - {x: 0.7, y: 0.25}
  - {x: 0.65, y: 0.1}
  - {x: 0.5, y: 0.05}
  - {x: 0.35, y: 0.1}
  - {x: 0.3, y: 0.25}
  - {x: 0.367, y: 0.383}
  - {x: 0.383, y: 0.467}
  - {x: 0.45, y: 0.6}
  - {x: 0.383, y: 0.733}
  - {x: 0.25, y: 0.8}
  - {x: 0.117, y: 0.733}
  - {x: 0.05, y: 0.6}
  - {x: 0.117, y: 0.467}
  - {x: 0.25, y: 0.4}
  - {x: 0.383, y: 0.467}
