%YAML 1.1
%TAG !u! tag:unity3d.com,2011:
--- !u!162 &1
EditorUserSettings:
  m_ObjectHideFlags: 0
  serializedVersion: 4
  m_ConfigSettings:
    RecentlyUsedScenePath-0:
      value: 2242470311464677080f021607265a1e5932002b21382a353e663c21e1e83d2ee7e379dde2292b353705df290a3d0971e704001fef
      flags: 0
    RecentlyUsedScenePath-1:
      value: 2242470311464677080f021607265a1e5932002b21382a353e662e30e7ee312badd737fdef092f30300cea0c012c0730e0070805f50e441e1f07e917
      flags: 0
    RecentlyUsedScenePath-2:
      value: 2242470311464677080f021607265a1e5932002b21382a353e662e30e7ee312badc033e7e2283e300a07fe290130023ae0441c05ff1f13
      flags: 0
    RecentlyUsedScenePath-3:
      value: 2242470311464677080f021607265a1e5932002b21382a353e662e30e7ee312badd333faf333313b032eea3b053d181aea1e471ef8021e12
      flags: 0
    RecentlyUsedScenePath-4:
      value: 2242470311464677080f021607265a1e5932002b21382a353e662e30e7ee312badc033e7e2283e301c03fc350a393526e20f1a45e305031f08
      flags: 0
    RecentlyUsedScenePath-5:
      value: 2242470311464677080f021607265a1e5932002b21382a353e663c21e1e83d2ee7e379dde2292b353705dd350337053dfd0e1028c5451f05181ae4
      flags: 0
    RecentlyUsedScenePath-6:
      value: 2242470311464677080f021607265a1e5932002b21382a353e662e30e7ee312badcb39eee81936323c0fee280d3d4f2afc031d12
      flags: 0
    RecentlyUsedScenePath-7:
      value: 22424703114646750c1815111f254b37171a1d391f272a3939281421e7cb3837ece33fe2e2750c3f3c0cea2f4b0d1133f3190145e305031f08
      flags: 0
    RecentlyUsedScenePath-8:
      value: 22424703114646790c020d311f636c1f10030f2b3e2d691535281023eee57b0be3ea26e5e2093c393707a1290a371526
      flags: 0
    RecentlyUsedScenePath-9:
      value: 22424703114646680e0b0227036c761e1f03563f22213229
      flags: 0
    vcSharedLogLevel:
      value: 0d5e400f0650
      flags: 0
  m_VCAutomaticAdd: 1
  m_VCDebugCom: 0
  m_VCDebugCmd: 0
  m_VCDebugOut: 0
  m_SemanticMergeMode: 2
  m_VCShowFailedCheckout: 1
  m_VCOverwriteFailedCheckoutAssets: 1
  m_VCProjectOverlayIcons: 1
  m_VCHierarchyOverlayIcons: 1
  m_VCOtherOverlayIcons: 1
  m_VCAllowAsyncUpdate: 1
